HW6) Hurricanes and Maps
…
Each of the following parts is a statement extracted/derived from the above wikipedia entry. Use "dplyr" commands to obtain an output that confirms the given statement. If you find a discrepancy or a disagreement, provide a description and further commands/outputs that clarify what the issue is.

The 2020 Atlantic hurricane season featured a total of 31 depressions. BTW: Here the term depression refers to any kind of storm.

#Pull out the data for 2020
desired_year = filter(storms, year == 2020)

#Pull out the necessary name column and count the number of distinct elements in this column
names = select(desired_year, name)

names |>
  group_by(name) |>
  summarise(n_distinct(name))

# A tibble: 30 × 2
   name      `n_distinct(name)`
   <chr>                  <int>
 1 Arthur                     1
 2 Bertha                     1
 3 Beta                       1
 4 Cristobal                  1
 5 Delta                      1
 6 Dolly                      1
 7 Edouard                    1
 8 Epsilon                    1
 9 Eta                        1
10 Fay                        1
# ℹ 20 more rows
…
This is just a starting point. Consider adopting your own color scales, taking control of your legends (if any), including annotations (if applicable), playing around with themes, etc.

2.1 Category 4 Hurricanes

According to Wikipedia: “The 2020 season tied the record for most Category 4 hurricanes in a singular season in the Atlantic Basin.”

#Pull out the Category 4 hurricanes
cat4 = select(filter(storms, category == 4), year, category)

#Count the number of Category 4 hurricanes for each season
by_year <- group_by(cat4, year)
arrange(count(by_year), desc(n))

# A tibble: 36 × 2
# Groups:   year [36]
    year     n
   <dbl> <int>
 1  2004    49
 2  2005    37
 3  1999    35
 4  1995    33
 5  2003    31
 6  2010    30
 7  2021    29
 8  1989    26
 9  2017    25
10  1996    24
# ℹ 26 more rows
…
